00000000 .text
000007d3 .rodata
000007ec .data
00000800 .bss
00000000 .comment
00000000 .debug_aranges
00000000 .debug_pubnames
00000000 .debug_info
00000000 .debug_abbrev
00000000 .debug_line
00000000 .debug_frame
00000000 .debug_str
00000000 .debug_loc
00000000 .debug_pubtypes
00000000 helloworld.c
00000000 ulib.c
0000002c stosb
00000000 printf.c
00000330 putc
00000358 printint
000007ec digits.911
00000000 umalloc.c
00000800 base
00000808 freep
0000069b morecore
00000051 strcpy
0000040c printf
0000024a memmove
000002d8 mknod
00000141 gets
00000310 getpid
000006f3 malloc
00000320 sleep
000002a0 pipe
000002b0 write
000002e8 fstat
000002c0 kill
00000300 chdir
000002c8 exec
00000298 wait
000002a8 read
000002e0 unlink
00000288 fork
00000318 sbrk
00000328 uptime
00000800 __bss_start
000000ea memset
00000000 main
00000084 strcmp
00000308 dup
000001b0 stat
00000800 _edata
0000080c _end
000002f0 link
00000290 exit
000001fe atoi
000000c5 strlen
000002d0 open
0000010e strchr
000002f8 mkdir
000002b8 close
000005c4 free
