00000000 .text
0000096b .rodata
000009ac .data
000009c0 .bss
00000000 .comment
00000000 .debug_aranges
00000000 .debug_pubnames
00000000 .debug_info
00000000 .debug_abbrev
00000000 .debug_line
00000000 .debug_frame
00000000 .debug_str
00000000 .debug_loc
00000000 .debug_pubtypes
00000000 wc.c
00000000 ulib.c
000001c4 stosb
00000000 printf.c
000004c8 putc
000004f0 printint
000009ac digits.911
00000000 umalloc.c
000009c0 base
000009c8 freep
00000833 morecore
000001e9 strcpy
000005a4 printf
000003e2 memmove
00000470 mknod
000002d9 gets
000004a8 getpid
0000088b malloc
000004b8 sleep
00000438 pipe
00000448 write
00000480 fstat
00000458 kill
00000498 chdir
00000460 exec
00000430 wait
00000440 read
00000478 unlink
00000000 wc
00000420 fork
000004b0 sbrk
000004c0 uptime
000009c0 __bss_start
00000282 memset
00000101 main
0000021c strcmp
000004a0 dup
000009e0 buf
00000348 stat
000009c0 _edata
00000be0 _end
00000488 link
00000428 exit
00000396 atoi
0000025d strlen
00000468 open
000002a6 strchr
00000490 mkdir
00000450 close
0000075c free
