00000000 .text
000007cb .rodata
000007d4 .data
000007e8 .bss
00000000 .comment
00000000 .debug_aranges
00000000 .debug_pubnames
00000000 .debug_info
00000000 .debug_abbrev
00000000 .debug_line
00000000 .debug_frame
00000000 .debug_str
00000000 .debug_loc
00000000 .debug_pubtypes
00000000 zombie.c
00000000 ulib.c
00000024 stosb
00000000 printf.c
00000328 putc
00000350 printint
000007d4 digits.911
00000000 umalloc.c
000007e8 base
000007f0 freep
00000693 morecore
00000049 strcpy
00000404 printf
00000242 memmove
000002d0 mknod
00000139 gets
00000308 getpid
000006eb malloc
00000318 sleep
00000298 pipe
000002a8 write
000002e0 fstat
000002b8 kill
000002f8 chdir
000002c0 exec
00000290 wait
000002a0 read
000002d8 unlink
00000280 fork
00000310 sbrk
00000320 uptime
000007e8 __bss_start
000000e2 memset
00000000 main
0000007c strcmp
00000300 dup
000001a8 stat
000007e8 _edata
000007f4 _end
000002e8 link
00000288 exit
000001f6 atoi
000000bd strlen
000002c8 open
00000106 strchr
000002f0 mkdir
000002b0 close
000005bc free
